//=========================================================================================
// MENU BACKGROUND
//=========================================================================================
// Uncomment (by removing the // before #base) the customization line you want to activate
// IMPORTANT: MAKE SURE ONLY ONE LINE STAYS UNCOMMENTED!!
//=========================================================================================


//#base "../resource/ui/pausemenugrey.res"				// DEFAULT GREY PAUSE MENU BACKGROUND
#base "../resource/ui/pausemenutransparent.res"		// TRANSPARENT PAUSE MENU BACKGROUND
